Project 1
…
EDU01a <- my_wrapper("https://www4.stat.ncsu.edu/~online/datasets/EDU01a.csv")

Lets look at EDU01b, since we looked at EDU01a previously.

EDU01b <- my_wrapper("https://www4.stat.ncsu.edu/~online/datasets/EDU01b.csv")

This one is the state level data for EDU01b and

EDU01a['firstelement']

## $firstelement
## # A tibble: 530 x 8
##    area_name     STCOU enrollment    value class  year measure division
##    <chr>         <chr> <chr>         <dbl> <chr> <dbl> <chr>   <chr>   
##  1 UNITED STATES 00000 EDU010187D 40024299 state  1987 EDU0101 ERROR   
##  2 UNITED STATES 00000 EDU010188D 39967624 state  1988 EDU0101 ERROR   
##  3 UNITED STATES 00000 EDU010189D 40317775 state  1989 EDU0101 ERROR   
##  4 UNITED STATES 00000 EDU010190D 40737600 state  1990 EDU0101 ERROR   
##  5 UNITED STATES 00000 EDU010191D 41385442 state  1991 EDU0101 ERROR   
##  6 UNITED STATES 00000 EDU010192D 42088151 state  1992 EDU0101 ERROR   
##  7 UNITED STATES 00000 EDU010193D 42724710 state  1993 EDU0101 ERROR   
##  8 UNITED STATES 00000 EDU010194D 43369917 state  1994 EDU0101 ERROR   
##  9 UNITED STATES 00000 EDU010195D 43993459 state  1995 EDU0101 ERROR   
## 10 UNITED STATES 00000 EDU010196D 44715737 state  1996 EDU0101 ERROR   
## # ... with 520 more rows

This is the county level data for EDU01b. Recall, when the wrapper
returned the two data set its in a form of a list. We need to use [] to
drill down into the list.

EDU01a['secondelement']

## $secondelement
## # A tibble: 31,450 x 8
##    area_name   STCOU enrollment value class   year measure division
##    <chr>       <chr> <chr>      <dbl> <chr>  <dbl> <chr>   <chr>   
##  1 Autauga, AL 01001 EDU010187D  6829 county  1987 EDU0101 AL      
##  2 Autauga, AL 01001 EDU010188D  6900 county  1988 EDU0101 AL      
##  3 Autauga, AL 01001 EDU010189D  6920 county  1989 EDU0101 AL      
##  4 Autauga, AL 01001 EDU010190D  6847 county  1990 EDU0101 AL      
##  5 Autauga, AL 01001 EDU010191D  7008 county  1991 EDU0101 AL      
##  6 Autauga, AL 01001 EDU010192D  7137 county  1992 EDU0101 AL      
##  7 Autauga, AL 01001 EDU010193D  7152 county  1993 EDU0101 AL      
##  8 Autauga, AL 01001 EDU010194D  7381 county  1994 EDU0101 AL      
##  9 Autauga, AL 01001 EDU010195D  7568 county  1995 EDU0101 AL      
## 10 Autauga, AL 01001 EDU010196D  7834 county  1996 EDU0101 AL      
## # ... with 31,440 more rows
…
